module gitlab.com/RicardoValladares/chat

go 1.20

require (
	fyne.io/fyne/v2 v2.4.5
	github.com/charmbracelet/bubbles v0.18.0
	github.com/charmbracelet/bubbletea v0.26.0
	github.com/charmbracelet/lipgloss v0.10.0
)

require (
	fyne.io/systray v1.10.1-0.20231115130155-104f5ef7839e // indirect
	github.com/atotto/clipboard v0.1.4 // indirect
	github.com/aymanbagabas/go-osc52/v2 v2.0.1 // indirect
	github.com/davecgh/go-spew v1.1.1 // indirect
	github.com/erikgeiser/coninput v0.0.0-20211004153227-1c3628e74d0f // indirect
	github.com/fredbi/uri v1.0.0 // indirect
	github.com/fsnotify/fsnotify v1.6.0 // indirect
	github.com/fyne-io/gl-js v0.0.0-20220119005834-d2da28d9ccfe // indirect
	github.com/fyne-io/glfw-js v0.0.0-20220120001248-ee7290d23504 // indirect
	github.com/fyne-io/image v0.0.0-20220602074514-4956b0afb3d2 // indirect
	github.com/go-gl/gl v0.0.0-20211210172815-726fda9656d6 // indirect
	github.com/go-gl/glfw/v3.3/glfw v0.0.0-20240306074159-ea2d69986ecb // indirect
	github.com/go-text/render v0.1.0 // indirect
	github.com/go-text/typesetting v0.1.0 // indirect
	github.com/godbus/dbus/v5 v5.1.0 // indirect
	github.com/gopherjs/gopherjs v1.17.2 // indirect
	github.com/jsummers/gobmp v0.0.0-20151104160322-e2ba15ffa76e // indirect
	github.com/lucasb-eyer/go-colorful v1.2.0 // indirect
	github.com/mattn/go-isatty v0.0.18 // indirect
	github.com/mattn/go-localereader v0.0.1 // indirect
	github.com/mattn/go-runewidth v0.0.15 // indirect
	github.com/muesli/ansi v0.0.0-20230316100256-276c6243b2f6 // indirect
	github.com/muesli/cancelreader v0.2.2 // indirect
	github.com/muesli/reflow v0.3.0 // indirect
	github.com/muesli/termenv v0.15.2 // indirect
	github.com/pmezard/go-difflib v1.0.0 // indirect
	github.com/rivo/uniseg v0.4.7 // indirect
	github.com/srwiley/oksvg v0.0.0-20221011165216-be6e8873101c // indirect
	github.com/srwiley/rasterx v0.0.0-20220730225603-2ab79fcdd4ef // indirect
	github.com/stretchr/testify v1.8.4 // indirect
	github.com/tevino/abool v1.2.0 // indirect
	github.com/yuin/goldmark v1.5.5 // indirect
	golang.org/x/image v0.11.0 // indirect
	golang.org/x/mobile v0.0.0-20230531173138-3c911d8e3eda // indirect
	golang.org/x/net v0.17.0 // indirect
	golang.org/x/sync v0.7.0 // indirect
	golang.org/x/sys v0.19.0 // indirect
	golang.org/x/term v0.19.0 // indirect
	golang.org/x/text v0.13.0 // indirect
	gopkg.in/yaml.v3 v3.0.1 // indirect
	honnef.co/go/js/dom v0.0.0-20210725211120-f030747120f2 // indirect
)
